{
    "26163575008": [
        {"data": "1990-07-21", "valor": 202},
        {"data": "1991-04-23", "valor": 257},
        {"data": "1991-04-24", "valor": 239},
        {"data": "1991-04-25", "valor": 206},
        {"data": "1991-04-26", "valor": 228},
        {"data": "1991-04-27", "valor": 259},
        {"data": "1991-04-28", "valor": 109}
    ],
    "18750365045": [
        {"data": "1989-10-10", "valor": 149},
        {"data": "1989-10-11", "valor": 171},
        {"data": "1989-10-12", "valor": 220},
        {"data": "1989-10-13", "valor": 288},
        {"data": "1989-10-14", "valor": 141},
        {"data": "1989-10-15", "valor": 206},
        {"data": "1989-10-16", "valor": 248}
    ],
    "73419558058": [    
        {"data": "1990-07-22", "valor": 108},
        {"data": "1990-07-23", "valor": 110},
        {"data": "1990-07-24", "valor": 116},
        {"data": "1990-07-25", "valor": 121},
        {"data": "1990-07-26", "valor": 115},
        {"data": "1990-07-27", "valor": 96},
        {"data": "1991-04-21", "valor": 123}
    ],
    "66877779045": [
        {"data": "1990-08-19", "valor": 104},
        {"data": "1990-08-20", "valor": 83},
        {"data": "1990-08-21", "valor": 80},
        {"data": "1990-08-22", "valor": 149},
        {"data": "1990-08-23", "valor": 102},
        {"data": "1990-08-24", "valor": 298},
        {"data": "1990-08-25", "valor": 158}
    ],
    "07476021070": [
        {"data": "1990-04-22", "valor": 213},
        {"data": "1990-04-23", "valor": 151},
        {"data": "1990-04-24", "valor": 83},
        {"data": "1990-04-25", "valor": 45},
        {"data": "1990-04-26", "valor": 132},
        {"data": "1990-04-27", "valor": 309},
        {"data": "1990-04-28", "valor": 172}
    ]
}