{
    "26163575008": [
        {"data": "2021-01-18", "valor": {"sistolica": 126.6, "diastolica":78.7}},
        {"data": "2021-01-19", "valor": {"sistolica": 124, "diastolica":77}},
        {"data": "2021-01-20", "valor": {"sistolica": 129.2, "diastolica":80.5}},
        {"data": "2021-01-21", "valor": {"sistolica": 126.5, "diastolica":78.7}},
        {"data": "2021-01-22", "valor": {"sistolica": 124.5, "diastolica":77.1}},
        {"data": "2021-01-23", "valor": {"sistolica": 128.6, "diastolica":80.4}},
        {"data": "2021-01-24", "valor": {"sistolica": 126.5, "diastolica":78.7}}
    ],
    "18750365045": [
        {"data": "2014-09-16", "valor": {"sistolica": 144.7, "diastolica":100.3}},
        {"data": "2014-03-11", "valor": {"sistolica": 113.3, "diastolica":80.7}},
        {"data": "2014-02-25", "valor": {"sistolica": 139.7, "diastolica":71.7}},
        {"data": "2015-09-15", "valor": {"sistolica": 129.7, "diastolica":92.7}},
        {"data": "2014-11-11", "valor": {"sistolica": 131.7, "diastolica":93.7}},
        {"data": "2015-07-07", "valor": {"sistolica": 125.3, "diastolica":86}},
        {"data": "2015-01-13", "valor": {"sistolica": 135.7, "diastolica":99}}
    ],
    "73419558058": [
        {"data": "2021-01-18", "valor": {"sistolica": 123.9, "diastolica":93}},
        {"data": "2021-01-19", "valor": {"sistolica": 121.2, "diastolica":86}},
        {"data": "2021-01-20", "valor": {"sistolica": 126.6, "diastolica":90}},
        {"data": "2021-01-21", "valor": {"sistolica": 123.8, "diastolica":102}},
        {"data": "2021-01-22", "valor": {"sistolica": 121.4, "diastolica":83}},
        {"data": "2021-01-23", "valor": {"sistolica": 126.3, "diastolica":95}},
        {"data": "2021-01-24", "valor": {"sistolica": 123.8, "diastolica":78}}
    ],
    "66877779045": [
        {"data": "2021-01-18", "valor": {"sistolica": 122.9, "diastolica":76.7}},
        {"data": "2021-01-19", "valor": {"sistolica": 122.1, "diastolica":76.2}},
        {"data": "2021-01-20", "valor": {"sistolica": 123.7, "diastolica":77.3}},
        {"data": "2021-01-21", "valor": {"sistolica": 122.8, "diastolica":76.7}},
        {"data": "2021-01-22", "valor": {"sistolica": 122.1, "diastolica":76.2}},
        {"data": "2021-01-23", "valor": {"sistolica": 123.6, "diastolica":77.2}},
        {"data": "2021-01-24", "valor": {"sistolica": 122.8, "diastolica":76.7}}
    ],
    "07476021070": [
        {"data": "2021-01-18", "valor": {"sistolica": 125.1, "diastolica":77.9}},
        {"data": "2021-01-19", "valor": {"sistolica": 127.1, "diastolica":79.3}},
        {"data": "2021-01-20", "valor": {"sistolica": 126.1, "diastolica":78.6}},
        {"data": "2021-01-21", "valor": {"sistolica": 125.1, "diastolica":78}},
        {"data": "2021-01-22", "valor": {"sistolica": 127.1, "diastolica":78.6}},
        {"data": "2021-01-23", "valor": {"sistolica": 126.1, "diastolica":78}},
        {"data": "2021-01-24", "valor": {"sistolica": 125.2, "diastolica":79.2}}
    ]
}